
output:
(Gdy	1
A	1
Bogu),	1
Bramie!	1
Częstochowy	1
Do	2
Dziś	1
Gdzie	2
I	2
Ile	1
Iść	1
Jak	1
Jasnej	1
Kto	1
Litwo!	1
Niemnem	1
Nowogródzki	1
Ofiarowany,	1
Ojczyzno	1
Ojczyzny	1
Ostrej	1
Panno	1
Szeroko	1
Tak	1
Twoją	1
Twych	1
Ty	1
Ty,	1
Tymczasem	1
Widzę	1
Wyzłacanych	1
Zieloną,	1
ala	8
biała,	1
bo	1
bronisz	1
bursztynowy	1
błękitnym	1
całej	1
cenić,	1
ciche	1
cię	2
co	2
cudem	1
cudem,	1
do	3
dowie,	1
duszę	1
dziecko	1
dzięcielina	1
grusze	1
gryka	1
gród	1
i	1
jak	2
jakby	1
jego	1
jesteś	1
kasia	3
kota	3
leśnych,	1
linia2	3
ludem!	1
ma	11
malowanych	1
martwą	1
matki	1
miedzą	1
mnie	1
mogłem	1
moja!	1
moją	1
na	2
nad	1
nas	1
niej	1
ochraniasz	1
od	1
opiekę	1
opisuję,	1
ozdobie	1
pagórków	1
panieńskim	1
pała,	1
pieszo	1
piękność	1
po	1
pod	1
podniosłem	1
podziękować	1
posrebrzanych	1
powiekę	1
powrócisz	1
powróciłaś	1
progu	1
przenoś	1
przepasane	1
psa	8
pszenicą,	1
pól	1
płaczącej	1
rozciągnionych;	1
rozmaitem,	1
rumieńcem	1
rzadka	1
s	1
siedzą.	1
się	1
stracił.	1
ten	1
test	3
tobie	1
trzeba	1
twą	1
tych	3
tylko	1
tęsknię	1
utęsknioną	1
w	2
wiernym	1
wrócone	1
wstęgą,	1
wszystko	1
xx	4
z	2
za	1
zamkowy	1
zaraz	1
zbożem	1
zdrowia	1
zdrowie,	1
zielonych,	1
łono.	1
łąk	1
śnieg	1
świecisz	1
świerzop,	1
świątyń	1
święta,	1
życie	1
żytem;	1

output2:
1	122
2	9
3	6
4	1
8	2
11	1


Joining:
a	1
b	2
c	3
d	4

and:

a	1.5
c	3.5
e	2.7

Results in:

a	1	1.5
c	3	3.5

Collections sizes:
4 + 3 -> 2


Testing map without reduce:

1	11
2	12
3	13


testing map without reduce when data loaded from file:

a	1
b	2
